﻿<?xml version="1.0" encoding="utf-8"?>
<svg version="1.1" xmlns:xlink="http://www.w3.org/1999/xlink" width="20px" height="20px" xmlns="http://www.w3.org/2000/svg">
  <g transform="matrix(1 0 0 1 0 -7 )">
    <path d="M 10 7  C 15.6 7  20 11.4  20 17  C 20 22.6  15.6 27  10 27  C 4.4 27  0 22.6  0 17  C 0 11.4  4.4 7  10 7  Z " fill-rule="nonzero" fill="#ffffff" stroke="none" />
    <path d="M 10 7.5  C 15.32 7.5  19.5 11.68  19.5 17  C 19.5 22.32  15.32 26.5  10 26.5  C 4.68 26.5  0.5 22.32  0.5 17  C 0.5 11.68  4.68 7.5  10 7.5  Z " stroke-width="1" stroke="#8c8c8c" fill="none" />
  </g>
</svg>