﻿<?xml version="1.0" encoding="utf-8"?>
<svg version="1.1" xmlns:xlink="http://www.w3.org/1999/xlink" width="46px" height="10px" preserveAspectRatio="xMinYMid meet" viewBox="328 388  46 8" xmlns="http://www.w3.org/2000/svg">
  <path d="M 328 392  L 364 392  A 5 5 0 0 1 369 397 L 369 419  A 5 5 0 0 0 374 424 L 467 424  " stroke-width="2" stroke="#0099cc" fill="none" />
</svg>