﻿<?xml version="1.0" encoding="utf-8"?>
<svg version="1.1" xmlns:xlink="http://www.w3.org/1999/xlink" width="373px" height="211px" xmlns="http://www.w3.org/2000/svg">
  <g transform="matrix(1 0 0 1 0 -238 )">
    <path d="M 0 238  L 373 238  L 373 449  L 0 449  L 0 238  " fill-rule="nonzero" fill="#cccccc" stroke="none" />
    <path d="M 15 253  L 358 253  L 358 434  L 15 434  L 15 253  " fill-rule="nonzero" fill="#ffffff" stroke="none" />
    <path d="M 209.785 301.3  C 200.923 301.3  193.96 294.337  193.96 285.475  C 193.96 276.613  200.923 269.65  209.785 269.65  C 218.647 269.65  225.61 276.613  225.61 285.475  C 225.61 294.337  218.647 301.3  209.785 301.3  " fill-rule="nonzero" fill="#cccccc" stroke="none" />
    <path d="M 21 429  L 21 335.5  L 104 293  L 220.2 371.300268096515  L 286.6 318.5  L 353 371.300268096515  L 353 429  L 21 429  " fill-rule="nonzero" fill="#169bd5" stroke="none" />
  </g>
</svg>