﻿<?xml version="1.0" encoding="utf-8"?>
<svg version="1.1" xmlns:xlink="http://www.w3.org/1999/xlink" width="19px" height="19px" xmlns="http://www.w3.org/2000/svg">
  <g transform="matrix(1 0 0 1 -10 -634 )">
    <path d="M 18.3732638888889 8.6650390625  C 18.791087962963 8.90006510416667  19 9.17838541666667  19 9.5  C 19 9.82161458333333  18.791087962963 10.0999348958333  18.3732638888889 10.3349609375  L 3.59548611111111 18.6474609375  C 3.17766203703704 18.8824869791667  2.68287037037037 19  2.11111111111111 19  C 1.53935185185185 19  1.04456018518519 18.8824869791667  0.626736111111111 18.6474609375  C 0.208912037037037 18.4124348958333  0 18.1341145833333  0 17.8125  L 0 1.1875  C 0 0.865885416666664  0.208912037037037 0.587565104166664  0.626736111111111 0.3525390625  C 1.04456018518519 0.117513020833332  1.53935185185185 0  2.11111111111111 0  C 2.68287037037037 0  3.17766203703704 0.117513020833332  3.59548611111111 0.3525390625  L 18.3732638888889 8.6650390625  Z " fill-rule="nonzero" fill="#ffffff" stroke="none" transform="matrix(1 0 0 1 10 634 )" />
  </g>
</svg>