﻿<?xml version="1.0" encoding="utf-8"?>
<svg version="1.1" xmlns:xlink="http://www.w3.org/1999/xlink" width="45px" height="10px" preserveAspectRatio="xMinYMid meet" viewBox="328 388  45 8" xmlns="http://www.w3.org/2000/svg">
  <path d="M 328 392  L 363 392  A 5 5 0 0 0 368 387 L 368 357  A 5 5 0 0 1 373 352 L 467 352  " stroke-width="2" stroke="#0099cc" fill="none" />
</svg>