﻿<?xml version="1.0" encoding="utf-8"?>
<svg version="1.1" xmlns:xlink="http://www.w3.org/1999/xlink" width="300px" height="548px" xmlns="http://www.w3.org/2000/svg">
  <g transform="matrix(1 0 0 1 -39 -69 )">
    <path d="M 39 69  L 339 69  L 339 617  L 39 617  L 39 69  " fill-rule="nonzero" fill="#cccccc" stroke="none" />
    <path d="M 60 90  L 318 90  L 318 596  L 60 596  L 60 90  " fill-rule="nonzero" fill="#ffffff" stroke="none" />
    <path d="M 217.5 196.2  C 204.9 196.2  195 186.3  195 173.7  C 195 161.1  204.9 151.2  217.5 151.2  C 230.1 151.2  240 161.1  240 173.7  C 240 186.3  230.1 196.2  217.5 196.2  " fill-rule="nonzero" fill="#cccccc" stroke="none" />
    <path d="M 68 589  L 68 318.95  L 128.75 196.2  L 213.8 294.4  L 262.4 269.85  L 311 294.4  L 311 589  L 68 589  " fill-rule="nonzero" fill="#169bd5" stroke="none" />
  </g>
</svg>