﻿<?xml version="1.0" encoding="utf-8"?>
<svg version="1.1" xmlns:xlink="http://www.w3.org/1999/xlink" width="8px" height="8px" xmlns="http://www.w3.org/2000/svg">
  <g transform="matrix(1 0 0 1 -142 -638 )">
    <path d="M 146 638  C 148.24 638  150 639.76  150 642  C 150 644.24  148.24 646  146 646  C 143.76 646  142 644.24  142 642  C 142 639.76  143.76 638  146 638  Z " fill-rule="nonzero" fill="#ffffff" stroke="none" />
  </g>
</svg>