﻿<?xml version="1.0" encoding="utf-8"?>
<svg version="1.1" xmlns:xlink="http://www.w3.org/1999/xlink" width="345px" height="2px" xmlns="http://www.w3.org/2000/svg">
  <g transform="matrix(1 0 0 1 -16 -521 )">
    <path d="M 16 521.5  L 360 521.5  " stroke-width="1" stroke="#7f7f7f" fill="none" />
  </g>
</svg>