﻿<?xml version="1.0" encoding="utf-8"?>
<svg version="1.1" xmlns:xlink="http://www.w3.org/1999/xlink" width="68px" height="79px" xmlns="http://www.w3.org/2000/svg">
  <g transform="matrix(1 0 0 1 -156 -280 )">
    <path d="M 51.1770833333333 2.99776785714286  L 64.9895833333333 16.7522321428571  C 65.8159722222222 17.5751488095238  66.5243055555556 18.6919642857143  67.1145833333333 20.1026785714286  C 67.7048611111111 21.5133928571429  68 22.8065476190476  68 23.9821428571429  L 68 74.7678571428571  C 68 75.9434523809524  67.5868055555556 76.9427083333333  66.7604166666667 77.765625  C 65.9340277777778 78.5885416666667  64.9305555555556 79  63.75 79  L 4.25 79  C 3.06944444444444 79  2.06597222222222 78.5885416666667  1.23958333333333 77.765625  C 0.413194444444444 76.9427083333333  0 75.9434523809524  0 74.7678571428571  L 0 4.23214285714286  C 0 3.05654761904762  0.413194444444444 2.05729166666666  1.23958333333333 1.234375  C 2.06597222222222 0.411458333333336  3.06944444444444 0  4.25 0  L 43.9166666666667 0  C 45.0972222222222 0  46.3958333333333 0.293898809523813  47.8125 0.88169642857143  C 49.2291666666667 1.46949404761905  50.3506944444444 2.17485119047619  51.1770833333333 2.99776785714286  Z M 47.1484375 6.96540178571429  C 46.7942708333333 6.61272321428571  46.1892361111111 6.28943452380951  45 5.99553571428571  L 45 23  L 61.9791666666667 23  C 61.6840277777778 21.7191220238095  61.359375 21.1166294642857  61.0052083333333 20.7639508928571  L 47.1484375 6.96540178571429  Z M 6 73  L 62 73  L 62 29  L 43.9166666666667 29  C 42.7361111111111 28.2142857142857  41.7326388888889 27.8028273809524  40.90625 26.9799107142857  C 40.0798611111111 26.156994047619  39.6666666666667 25.1577380952381  39 23.9821428571429  L 39 6  L 6 6  L 6 73  Z M 17 34  L 34 34  C 35.5347222222222 33.8571428571429  36.8628472222222 34.4155505952381  37.984375 35.5323660714286  C 39.1059027777778 36.649181547619  39.6666666666667 37.9717261904762  39 39.5  L 39 56.4285714285714  C 39.6666666666667 57.9568452380952  39.1059027777778 59.2793898809524  37.984375 60.3962053571429  C 36.8628472222222 61.5130208333333  35.5347222222222 62.0714285714286  34 62  L 17 62  C 15.4652777777778 62.0714285714286  14.1371527777778 61.5130208333333  13.015625 60.3962053571429  C 11.8940972222222 59.2793898809524  11.3333333333333 57.9568452380952  12 56.4285714285714  L 12 39.5  C 11.3333333333333 37.9717261904762  11.8940972222222 36.649181547619  13.015625 35.5323660714286  C 14.1371527777778 34.4155505952381  15.4652777777778 33.8571428571429  17 34  Z M 55.25 33.8571428571429  C 55.3680555555556 33.8571428571429  55.5451388888889 33.8865327380952  55.78125 33.9453125  C 56.3715277777778 34.180431547619  56.6666666666667 34.6212797619048  56 35.2678571428571  L 56 60.6607142857143  C 56.6666666666667 61.3072916666667  56.3715277777778 61.7481398809524  55.78125 61.9832589285714  C 55.5451388888889 62.0420386904762  55.3680555555556 62.0714285714286  55.25 62.0714285714286  C 54.8368055555556 62.0714285714286  54.4973958333333 61.9391741071429  54.2317708333333 61.6746651785714  L 42.5 49.9481026785714  L 42.5 45.98046875  L 54.2317708333333 34.25390625  C 54.4973958333333 33.9893973214286  54.8368055555556 33.8571428571429  55.25 33.8571428571429  Z " fill-rule="nonzero" fill="#000000" stroke="none" transform="matrix(1 0 0 1 156 280 )" />
  </g>
</svg>