﻿<?xml version="1.0" encoding="utf-8"?>
<svg version="1.1" xmlns:xlink="http://www.w3.org/1999/xlink" width="18px" height="18px" xmlns="http://www.w3.org/2000/svg">
  <g transform="matrix(1 0 0 1 -258 -116 )">
    <path d="M 6.43039772727273 14.89453125  C 6.50710227272727 14.82421875  6.54545454545455 14.734375  6.54545454545455 14.625  L 6.54545454545455 6.375  C 6.54545454545455 6.265625  6.50710227272727 6.17578125  6.43039772727273 6.10546875  C 6.35369318181818 6.03515625  6.25568181818182 6  6.13636363636364 6  L 5.31818181818182 6  C 5.19886363636364 6  5.10085227272727 6.03515625  5.02414772727273 6.10546875  C 4.94744318181818 6.17578125  4.90909090909091 6.265625  4.90909090909091 6.375  L 4.90909090909091 14.625  C 4.90909090909091 14.734375  4.94744318181818 14.82421875  5.02414772727273 14.89453125  C 5.10085227272727 14.96484375  5.19886363636364 15  5.31818181818182 15  L 6.13636363636364 15  C 6.25568181818182 15  6.35369318181818 14.96484375  6.43039772727273 14.89453125  Z M 9.703125 14.89453125  C 9.77982954545454 14.82421875  9.81818181818182 14.734375  9.81818181818182 14.625  L 9.81818181818182 6.375  C 9.81818181818182 6.265625  9.77982954545454 6.17578125  9.703125 6.10546875  C 9.62642045454546 6.03515625  9.52840909090909 6  9.40909090909091 6  L 8.59090909090909 6  C 8.47159090909091 6  8.37357954545454 6.03515625  8.296875 6.10546875  C 8.22017045454546 6.17578125  8.18181818181818 6.265625  8.18181818181818 6.375  L 8.18181818181818 14.625  C 8.18181818181818 14.734375  8.22017045454546 14.82421875  8.296875 14.89453125  C 8.37357954545454 14.96484375  8.47159090909091 15  8.59090909090909 15  L 9.40909090909091 15  C 9.52840909090909 15  9.62642045454546 14.96484375  9.703125 14.89453125  Z M 12.9758522727273 14.89453125  C 13.0525568181818 14.82421875  13.0909090909091 14.734375  13.0909090909091 14.625  L 13.0909090909091 6.375  C 13.0909090909091 6.265625  13.0525568181818 6.17578125  12.9758522727273 6.10546875  C 12.8991477272727 6.03515625  12.8011363636364 6  12.6818181818182 6  L 11.8636363636364 6  C 11.7443181818182 6  11.6463068181818 6.03515625  11.5696022727273 6.10546875  C 11.4928977272727 6.17578125  11.4545454545455 6.265625  11.4545454545455 6.375  L 11.4545454545455 14.625  C 11.4545454545455 14.734375  11.4928977272727 14.82421875  11.5696022727273 14.89453125  C 11.6463068181818 14.96484375  11.7443181818182 15  11.8636363636364 15  L 12.6818181818182 15  C 12.8011363636364 15  12.8991477272727 14.96484375  12.9758522727273 14.89453125  Z M 6.76278409090909 1.62890625  L 6.13636363636364 3  L 11.8636363636364 3  L 11.25 1.62890625  C 11.1903409090909 1.55859375  11.1178977272727 1.515625  11.0326704545455 1.5  L 6.98011363636364 1.5  C 6.89488636363636 1.515625  6.82244318181818 1.55859375  6.76278409090909 1.62890625  Z M 17.8849431818182 3.10546875  C 17.9616477272727 3.17578125  18 3.265625  18 3.375  L 18 4.125  C 18 4.234375  17.9616477272727 4.32421875  17.8849431818182 4.39453125  C 17.8082386363636 4.46484375  17.7102272727273 4.5  17.5909090909091 4.5  L 16.3636363636364 4.5  L 16.3636363636364 15.609375  C 16.3636363636364 16.2578125  16.1633522727273 16.818359375  15.7627840909091 17.291015625  C 15.3622159090909 17.763671875  14.8806818181818 18  14.3181818181818 18  L 3.68181818181818 18  C 3.11931818181818 18  2.63778409090909 17.771484375  2.23721590909091 17.314453125  C 1.83664772727273 16.857421875  1.63636363636364 16.3046875  1.63636363636364 15.65625  L 1.63636363636364 4.5  L 0.409090909090909 4.5  C 0.289772727272727 4.5  0.191761363636364 4.46484375  0.115056818181818 4.39453125  C 0.0383522727272727 4.32421875  0 4.234375  0 4.125  L 0 3.375  C 0 3.265625  0.0383522727272727 3.17578125  0.115056818181818 3.10546875  C 0.191761363636364 3.03515625  0.289772727272727 3  0.409090909090909 3  L 4.359375 3  L 5.25426136363636 1.04296875  C 5.38210227272727 0.753906249999998  5.61221590909091 0.507812499999998  5.94460227272727 0.304687500000001  C 6.27698863636364 0.101562499999999  6.61363636363636 0  6.95454545454545 0  L 11.0454545454545 0  C 11.3863636363636 0  11.7230113636364 0.101562499999999  12.0553977272727 0.304687500000001  C 12.3877840909091 0.507812499999998  12.6178977272727 0.753906249999998  12.7457386363636 1.04296875  L 13.640625 3  L 17.5909090909091 3  C 17.7102272727273 3  17.8082386363636 3.03515625  17.8849431818182 3.10546875  Z " fill-rule="nonzero" fill="#333333" stroke="none" transform="matrix(1 0 0 1 258 116 )" />
  </g>
</svg>