﻿<?xml version="1.0" encoding="utf-8"?>
<svg version="1.1" xmlns:xlink="http://www.w3.org/1999/xlink" width="147px" height="33px" xmlns="http://www.w3.org/2000/svg">
  <g transform="matrix(1 0 0 1 -171 0 )">
    <path d="M 0 28  L 0 5  C 0 2.2  2.19999999999999 0  5 0  L 142 0  C 144.8 0  147 2.2  147 5  L 147 28  C 147 30.8  144.8 33  142 33  L 107 33  L 5 33  C 2.19999999999999 33  0 30.8  0 28  Z " fill-rule="nonzero" fill="#cfa972" stroke="none" transform="matrix(1 0 0 1 171 0 )" />
  </g>
</svg>