﻿<?xml version="1.0" encoding="utf-8"?>
<svg version="1.1" xmlns:xlink="http://www.w3.org/1999/xlink" width="66px" height="18px" xmlns="http://www.w3.org/2000/svg">
  <g transform="matrix(1 0 0 1 -234 -116 )">
    <path d="M 235 125  A 8 8 0 0 1 243 117 L 291 117  A 8 8 0 0 1 299 125 A 8 8 0 0 1 291 133 L 243 133  A 8 8 0 0 1 235 125 Z " fill-rule="nonzero" fill="#cfa972" stroke="none" />
  </g>
</svg>