﻿<?xml version="1.0" encoding="utf-8"?>
<svg version="1.1" xmlns:xlink="http://www.w3.org/1999/xlink" width="64px" height="10px" preserveAspectRatio="xMinYMid meet" viewBox="405 422  64 8" xmlns="http://www.w3.org/2000/svg">
  <path d="M 352 569  L 405 569  A 5 5 0 0 0 410 564 L 410 431  A 5 5 0 0 1 415 426 L 469 426  " stroke-width="2" stroke="#0099cc" fill="none" />
</svg>