﻿<?xml version="1.0" encoding="utf-8"?>
<svg version="1.1" xmlns:xlink="http://www.w3.org/1999/xlink" width="64px" height="10px" preserveAspectRatio="xMinYMid meet" viewBox="410 522  64 8" xmlns="http://www.w3.org/2000/svg">
  <path d="M 410 526  L 469 526  " stroke-width="2" stroke="#0099cc" fill="none" />
</svg>