﻿<?xml version="1.0" encoding="utf-8"?>
<svg version="1.1" xmlns:xlink="http://www.w3.org/1999/xlink" width="4px" height="2px" preserveAspectRatio="xMinYMid meet" viewBox="672 547  4 0" xmlns="http://www.w3.org/2000/svg">
  <path d="M 764 552.8  L 770 546.5  L 764 540.2  L 764 552.8  Z " fill-rule="nonzero" fill="#797979" stroke="none" />
  <path d="M 673 546.5  L 765 546.5  " stroke-width="1" stroke="#797979" fill="none" />
</svg>