﻿<?xml version="1.0" encoding="utf-8"?>
<svg version="1.1" xmlns:xlink="http://www.w3.org/1999/xlink" width="10px" height="69px" preserveAspectRatio="xMidYMin meet" viewBox="407 561  8 69" xmlns="http://www.w3.org/2000/svg">
  <path d="M 411 561  L 411 620  A 5 5 0 0 0 416 625 L 469 625  " stroke-width="2" stroke="#0099cc" fill="none" />
</svg>