﻿<?xml version="1.0" encoding="utf-8"?>
<svg version="1.1" xmlns:xlink="http://www.w3.org/1999/xlink" width="19px" height="24px" xmlns="http://www.w3.org/2000/svg">
  <g transform="matrix(1 0 0 1 -19 -107 )">
    <path d="M 5.27777777777778 12  L 17.4166666666667 12  C 17.8564814814815 12  18.2303240740741 12.1458333333333  18.5381944444444 12.4375  C 18.8460648148148 12.7291666666667  19 13.0833333333333  19 13.5  L 19 22.5  C 19 22.9166666666667  18.8460648148148 23.2708333333333  18.5381944444444 23.5625  C 18.2303240740741 23.8541666666667  17.8564814814815 24  17.4166666666667 24  L 1.58333333333333 24  C 1.14351851851852 24  0.769675925925926 23.8541666666667  0.461805555555556 23.5625  C 0.153935185185185 23.2708333333333  0 22.9166666666667  0 22.5  L 0 13.5  C 0 13.0833333333333  0.153935185185185 12.7291666666667  0.461805555555556 12.4375  C 0.769675925925926 12.1458333333333  1.14351851851852 12  1.58333333333333 12  L 2.11111111111111 12  L 2.11111111111111 7  C 2.11111111111111 5.07291666666666  2.83405671296296 3.42447916666666  4.27994791666667 2.0546875  C 5.72583912037037 0.684895833333335  7.46585648148148 0  9.5 0  C 11.5341435185185 0  13.2741608796296 0.684895833333335  14.7200520833333 2.0546875  C 16.165943287037 3.42447916666666  16.8888888888889 5.07291666666666  16.8888888888889 7  C 16.8888888888889 7.27083333333333  16.7844328703704 7.50520833333333  16.5755208333333 7.703125  C 16.3666087962963 7.90104166666666  16.119212962963 8  15.8333333333333 8  L 14.7777777777778 8  C 14.4918981481481 8  14.2445023148148 7.90104166666666  14.0355902777778 7.703125  C 13.8266782407407 7.50520833333333  13.7222222222222 7.27083333333333  13.7222222222222 7  C 13.7222222222222 5.89583333333333  13.3098958333333 4.953125  12.4852430555556 4.171875  C 11.6605902777778 3.390625  10.6655092592593 3  9.5 3  C 8.33449074074074 3  7.33940972222222 3.390625  6.51475694444444 4.171875  C 5.69010416666667 4.953125  5.27777777777778 5.89583333333333  5.27777777777778 7  L 5.27777777777778 12  Z " fill-rule="nonzero" fill="#333333" stroke="none" transform="matrix(1 0 0 1 19 107 )" />
  </g>
</svg>