﻿<?xml version="1.0" encoding="utf-8"?>
<svg version="1.1" xmlns:xlink="http://www.w3.org/1999/xlink" width="58px" height="6px" viewBox="376 538  58 6" xmlns="http://www.w3.org/2000/svg">
  <g transform="matrix(-0.999840599345445 0.0178542964168817 -0.0178542964168857 -0.999840599345452 819.594617096441 1074.68277419705 )">
    <path d="M 377 540  L 428.000797003273 540.910728517916  " stroke-width="1" stroke="#333333" fill="none" />
    <path d="M 426.888474336501 547.191869997375  L 433 541  L 427.113438471354 534.593878445622  L 426.888474336501 547.191869997375  Z " fill-rule="nonzero" fill="#333333" stroke="none" />
  </g>
</svg>