﻿<?xml version="1.0" encoding="utf-8"?>
<svg version="1.1" xmlns:xlink="http://www.w3.org/1999/xlink" width="300px" height="158px" xmlns="http://www.w3.org/2000/svg">
  <g transform="matrix(1 0 0 1 -10 -45 )">
    <path d="M 10 45  L 310 45  L 310 203  L 10 203  L 10 45  " fill-rule="nonzero" fill="#cccccc" stroke="none" />
    <path d="M 21 56  L 299 56  L 299 192  L 21 192  L 21 56  " fill-rule="nonzero" fill="#ffffff" stroke="none" />
    <path d="M 177.85 92.4  C 171.214 92.4  166 87.186  166 80.55  C 166 73.914  171.214 68.7  177.85 68.7  C 184.486 68.7  189.7 73.914  189.7 80.55  C 189.7 87.186  184.486 92.4  177.85 92.4  " fill-rule="nonzero" fill="#cccccc" stroke="none" />
    <path d="M 25 188  L 25 117.6  L 92.5 85.6  L 187 147.552  L 241 104.8  L 295 147.552  L 295 188  L 25 188  " fill-rule="nonzero" fill="#169bd5" stroke="none" />
  </g>
</svg>