﻿<?xml version="1.0" encoding="utf-8"?>
<svg version="1.1" xmlns:xlink="http://www.w3.org/1999/xlink" width="27px" height="21px" xmlns="http://www.w3.org/2000/svg">
  <g transform="matrix(1 0 0 1 -25 -274 )">
    <path d="M 25.4933035714286 8.06889204545455  C 26.0658482142857 7.68110795454545  26.5680803571429 7.24857954545455  27 6.77130681818182  L 27 18.6136363636364  C 27 19.2698863636364  26.7639508928571 19.8316761363636  26.2918526785714 20.2990056818182  C 25.8197544642857 20.7663352272727  25.2522321428571 21  24.5892857142857 21  L 2.41071428571429 21  C 1.74776785714286 21  1.18024553571429 20.7663352272727  0.708147321428572 20.2990056818182  C 0.236049107142857 19.8316761363636  0 19.2698863636364  0 18.6136363636364  L 0 6.77130681818182  C 0.441964285714286 7.25852272727273  0.94921875 7.69105113636363  1.52176339285714 8.06889204545455  C 5.15792410714286 10.5149147727273  7.65401785714286 12.2301136363636  9.01004464285714 13.2144886363636  C 9.58258928571429 13.6321022727273  10.0471540178571 13.9577414772727  10.4037388392857 14.19140625  C 10.7603236607143 14.4250710227273  11.2349330357143 14.6637073863636  11.8275669642857 14.9073153409091  C 12.4202008928571 15.1509232954545  12.97265625 15.2727272727273  13.4849330357143 15.2727272727273  L 13.5 15.2727272727273  L 13.5150669642857 15.2727272727273  C 14.02734375 15.2727272727273  14.5797991071429 15.1509232954545  15.1724330357143 14.9073153409091  C 15.7650669642857 14.6637073863636  16.2396763392857 14.4250710227273  16.5962611607143 14.19140625  C 16.9528459821429 13.9577414772727  17.4174107142857 13.6321022727273  17.9899553571429 13.2144886363636  C 19.6975446428571 11.9914772727273  22.1986607142857 10.2762784090909  25.4933035714286 8.06889204545455  Z M 26.2843191964286 0.700994318181817  C 26.7614397321429 1.16832386363636  27 1.73011363636364  27 2.38636363636364  C 27 3.171875  26.75390625 3.92258522727273  26.26171875 4.63849431818182  C 25.76953125 5.35440340909091  25.1568080357143 5.96590909090909  24.4235491071429 6.47301136363636  C 20.6467633928571 9.06818181818182  18.2963169642857 10.6839488636364  17.3722098214286 11.3203125  C 17.2717633928571 11.3899147727273  17.0583147321429 11.5415482954545  16.7318638392857 11.7752130681818  C 16.4054129464286 12.0088778409091  16.1342075892857 12.1977982954545  15.9182477678571 12.3419744318182  C 15.7022879464286 12.4861505681818  15.4411272321429 12.6477272727273  15.134765625 12.8267045454545  C 14.8284040178571 13.0056818181818  14.5396205357143 13.1399147727273  14.2684151785714 13.2294034090909  C 13.9972098214286 13.3188920454545  13.74609375 13.3636363636364  13.5150669642857 13.3636363636364  L 13.5 13.3636363636364  L 13.4849330357143 13.3636363636364  C 13.25390625 13.3636363636364  13.0027901785714 13.3188920454545  12.7315848214286 13.2294034090909  C 12.4603794642857 13.1399147727273  12.1715959821429 13.0056818181818  11.865234375 12.8267045454545  C 11.5588727678571 12.6477272727273  11.2977120535714 12.4861505681818  11.0817522321429 12.3419744318182  C 10.8657924107143 12.1977982954545  10.5945870535714 12.0088778409091  10.2681361607143 11.7752130681818  C 9.94168526785714 11.5415482954545  9.72823660714286 11.3899147727273  9.62779017857143 11.3203125  C 8.71372767857143 10.6839488636364  7.39787946428571 9.77663352272727  5.68024553571429 8.59836647727273  C 3.96261160714286 7.42009943181818  2.93303571428571 6.71164772727272  2.59151785714286 6.47301136363636  C 1.96875 6.05539772727272  1.38113839285714 5.48117897727273  0.828683035714286 4.75035511363636  C 0.276227678571429 4.01953125  0 3.34090909090909  0 2.71448863636364  C 0 1.93892045454545  0.208426339285714 1.29261363636363  0.625279017857143 0.775568181818183  C 1.04213169642857 0.258522727272725  1.63727678571429 0  2.41071428571429 0  L 24.5892857142857 0  C 25.2421875 0  25.8071986607143 0.23366477272727  26.2843191964286 0.700994318181817  Z " fill-rule="nonzero" fill="#333333" stroke="none" transform="matrix(1 0 0 1 25 274 )" />
  </g>
</svg>