﻿<?xml version="1.0" encoding="utf-8"?>
<svg version="1.1" xmlns:xlink="http://www.w3.org/1999/xlink" width="50px" height="50px" xmlns="http://www.w3.org/2000/svg">
  <g transform="matrix(1 0 0 1 -146 -146 )">
    <path d="M 15.4459635416667 40.4459635416667  C 16.259765625 39.6321614583333  16.6666666666667 38.6501736111111  16.6666666666667 37.5  C 16.6666666666667 36.3498263888889  16.259765625 35.3678385416667  15.4459635416667 34.5540364583333  C 14.6321614583333 33.740234375  13.6501736111111 33.3333333333333  12.5 33.3333333333333  C 11.3498263888889 33.3333333333333  10.3678385416667 33.740234375  9.55403645833333 34.5540364583333  C 8.740234375 35.3678385416667  8.33333333333333 36.3498263888889  8.33333333333333 37.5  C 8.33333333333333 38.6501736111111  8.740234375 39.6321614583333  9.55403645833333 40.4459635416667  C 10.3678385416667 41.259765625  11.3498263888889 41.6666666666667  12.5 41.6666666666667  C 13.6501736111111 41.6666666666667  14.6321614583333 41.259765625  15.4459635416667 40.4459635416667  Z M 27.7994791666667 41.3411458333333  C 28.0164930555556 41.1241319444444  28.1141493055556 40.8637152777778  28.0924479166667 40.5598958333333  C 27.8103298611111 35.5034722222222  25.8951822916667 31.201171875  22.3470052083333 27.6529947916667  C 18.798828125 24.1048177083333  14.4965277777778 22.1896701388889  9.44010416666667 21.9075520833333  C 9.13628472222222 21.8858506944444  8.87586805555556 21.9835069444444  8.65885416666667 22.2005208333333  C 8.44184027777778 22.4175347222222  8.33333333333333 22.6671006944444  8.33333333333333 22.94921875  L 8.33333333333333 27.1158854166667  C 8.33333333333333 27.3980034722222  8.42556423611111 27.63671875  8.61002604166667 27.83203125  C 8.79448784722222 28.02734375  9.02777777777778 28.1358506944444  9.30989583333333 28.1575520833333  C 12.6519097222222 28.3962673611111  15.5164930555556 29.7092013888889  17.9036458333333 32.0963541666667  C 20.2907986111111 34.4835069444444  21.6037326388889 37.3480902777778  21.8424479166667 40.6901041666667  C 21.8641493055556 40.9722222222222  21.97265625 41.2055121527778  22.16796875 41.3899739583333  C 22.36328125 41.5744357638889  22.6019965277778 41.6666666666667  22.8841145833333 41.6666666666667  L 27.05078125 41.6666666666667  C 27.3328993055556 41.6666666666667  27.5824652777778 41.5581597222222  27.7994791666667 41.3411458333333  Z M 40.2994791666667 41.3411458333333  C 40.5381944444444 41.1458333333333  40.6358506944444 40.8962673611111  40.5924479166667 40.5924479166667  C 40.4839409722222 37.2504340277778  39.8763020833333 34.0223524305556  38.76953125 30.908203125  C 37.6627604166667 27.7940538194444  36.1490885416667 24.9728732638889  34.228515625 22.4446614583333  C 32.3079427083333 19.9164496527778  30.0835503472222 17.6920572916667  27.5553385416667 15.771484375  C 25.0271267361111 13.8509114583333  22.2059461805556 12.3372395833333  19.091796875 11.23046875  C 15.9776475694444 10.1236979166667  12.7495659722222 9.51605902777777  9.40755208333333 9.40755208333333  C 9.10373263888889 9.38585069444444  8.85416666666667 9.48350694444444  8.65885416666667 9.70052083333333  C 8.44184027777778 9.91753472222222  8.33333333333333 10.1671006944444  8.33333333333333 10.44921875  L 8.33333333333333 14.6158854166667  C 8.33333333333333 14.8980034722222  8.43098958333333 15.13671875  8.62630208333333 15.33203125  C 8.82161458333333 15.52734375  9.06032986111111 15.6358506944444  9.34244791666667 15.6575520833333  C 13.76953125 15.8094618055556  17.87109375 17.0193142361111  21.6471354166667 19.287109375  C 25.4231770833333 21.5549045138889  28.4450954861111 24.5768229166667  30.712890625 28.3528645833333  C 32.9806857638889 32.12890625  34.1905381944444 36.23046875  34.3424479166667 40.6575520833333  C 34.3641493055556 40.9396701388889  34.47265625 41.1783854166667  34.66796875 41.3736979166667  C 34.86328125 41.5690104166667  35.1019965277778 41.6666666666667  35.3841145833333 41.6666666666667  L 39.55078125 41.6666666666667  C 39.8328993055556 41.6666666666667  40.0824652777778 41.5581597222222  40.2994791666667 41.3411458333333  Z M 47.2493489583333 2.75065104166667  C 49.0831163194444 4.58441840277777  50 6.79253472222222  50 9.375  L 50 40.625  C 50 43.2074652777778  49.0831163194444 45.4155815972222  47.2493489583333 47.2493489583333  C 45.4155815972222 49.0831163194444  43.2074652777778 50  40.625 50  L 9.375 50  C 6.79253472222222 50  4.58441840277778 49.0831163194444  2.75065104166667 47.2493489583333  C 0.916883680555555 45.4155815972222  0 43.2074652777778  0 40.625  L 0 9.375  C 0 6.79253472222222  0.916883680555555 4.58441840277777  2.75065104166667 2.75065104166667  C 4.58441840277778 0.916883680555552  6.79253472222222 0  9.375 0  L 40.625 0  C 43.2074652777778 0  45.4155815972222 0.916883680555552  47.2493489583333 2.75065104166667  Z " fill-rule="nonzero" fill="#000000" stroke="none" transform="matrix(1 0 0 1 146 146 )" />
  </g>
</svg>