﻿<?xml version="1.0" encoding="utf-8"?>
<svg version="1.1" xmlns:xlink="http://www.w3.org/1999/xlink" width="154px" height="7px" xmlns="http://www.w3.org/2000/svg">
  <g transform="matrix(1 0 0 1 -19.5 -30.5 )">
    <path d="M 21 33.5  L 171 33.5  " stroke-width="3" stroke="#f59a23" fill="none" />
  </g>
</svg>