﻿<?xml version="1.0" encoding="utf-8"?>
<svg version="1.1" xmlns:xlink="http://www.w3.org/1999/xlink" width="87px" height="10px" preserveAspectRatio="xMinYMid meet" viewBox="423 422  87 8" xmlns="http://www.w3.org/2000/svg">
  <path d="M 347 412  L 423 412  A 5 5 0 0 1 428 417 L 428 421  A 5 5 0 0 0 433 426 L 510 426  " stroke-width="2" stroke="#0099cc" fill="none" />
</svg>