﻿<?xml version="1.0" encoding="utf-8"?>
<svg version="1.1" xmlns:xlink="http://www.w3.org/1999/xlink" width="264px" height="10px" preserveAspectRatio="xMinYMid meet" viewBox="712 217  264 8" xmlns="http://www.w3.org/2000/svg">
  <path d="M 670 317  L 712 317  A 5 5 0 0 0 717 312 L 717 226  A 5 5 0 0 1 722 221 L 976 221  " stroke-width="2" stroke="#0099cc" fill="none" />
</svg>