﻿<?xml version="1.0" encoding="utf-8"?>
<svg version="1.1" xmlns:xlink="http://www.w3.org/1999/xlink" width="87px" height="10px" preserveAspectRatio="xMinYMid meet" viewBox="423 313  87 8" xmlns="http://www.w3.org/2000/svg">
  <path d="M 347 412  L 423 412  A 5 5 0 0 0 428 407 L 428 322  A 5 5 0 0 1 433 317 L 510 317  " stroke-width="2" stroke="#0099cc" fill="none" />
</svg>