﻿<?xml version="1.0" encoding="utf-8"?>
<svg version="1.1" xmlns:xlink="http://www.w3.org/1999/xlink" width="24px" height="19px" xmlns="http://www.w3.org/2000/svg">
  <g transform="matrix(1 0 0 1 -18 -200 )">
    <path d="M 22.1584821428571 17.14453125  C 22.2433035714286 17.0590672348485  22.2857142857143 16.9578598484849  22 16.8409090909091  L 22 6.47727272727273  C 22 6.80113636363636  21.6919642857143 7.09801136363636  21.3616071428571 7.36789772727273  C 18.96875 9.22111742424242  17.0669642857143 10.7414772727273  15.65625 11.9289772727273  C 15.2008928571429 12.3158143939394  14.8303571428571 12.6171875  14.5446428571429 12.8330965909091  C 14.2589285714286 13.0490056818182  13.8727678571429 13.2671638257576  13.3861607142857 13.4875710227273  C 12.8995535714286 13.707978219697  12.4419642857143 13.8181818181818  12.0133928571429 13.8181818181818  L 12 13.8181818181818  L 11.9866071428571 13.8181818181818  C 11.5580357142857 13.8181818181818  11.1004464285714 13.707978219697  10.6138392857143 13.4875710227273  C 10.1272321428571 13.2671638257576  9.74107142857143 13.0490056818182  9.45535714285714 12.8330965909091  C 9.16964285714286 12.6171875  8.79910714285714 12.3158143939394  8.34375 11.9289772727273  C 6.93303571428572 10.7414772727273  5.03125 9.22111742424242  2.63839285714286 7.36789772727273  C 2.30803571428571 7.09801136363636  2 6.80113636363636  2 6.47727272727273  L 2 16.8409090909091  C 1.71428571428571 16.9578598484849  1.75669642857143 17.0590672348485  1.84151785714286 17.14453125  C 1.92633928571429 17.2299952651515  2.02678571428571 17.2727272727273  2.14285714285714 17  L 21.8571428571429 17  C 21.9732142857143 17.2727272727273  22.0736607142857 17.2299952651515  22.1584821428571 17.14453125  Z M 21.6629464285714 4.43288352272727  C 22.078125 3.78065814393939  22.2857142857143 3.1891571969697  22.2857142857143 2.65838068181818  L 22.2857142857143 2.50994318181818  L 22.2857142857143 2.32776988636364  C 22.2857142857143 2.32776988636364  22.2834821428571 2.26929450757575  22.2790178571429 2.15234375  C 22.2745535714286 2.03539299242424  22.2611607142857 1.97916666666666  22.2388392857143 1.98366477272727  C 22.2165178571429 1.98816287878788  22.1919642857143 1.94767992424242  22.1651785714286 1.86221590909091  C 22.1383928571429 1.77675189393939  22.0982142857143 1.74301609848485  22.0446428571429 1.76100852272727  C 21.9910714285714 1.7790009469697  21.9285714285714 1.76775568181818  21.8571428571429 2  L 2.14285714285714 2  C 2.02678571428571 1.72727272727273  1.92633928571429 1.77000473484848  1.84151785714286 1.85546875  C 1.75669642857143 1.94093276515151  1.71428571428571 2.04214015151515  1.71428571428571 2.15909090909091  C 1.71428571428571 3.67045454545455  2.37053571428571 4.94791666666666  3.68303571428571 5.99147727272727  C 5.40625 7.35890151515151  7.19642857142857 8.78480113636364  9.05357142857143 10.2691761363636  C 9.10714285714286 10.3141571969697  9.26339285714286 10.4468513257576  9.52232142857143 10.6672585227273  C 9.78125 10.887665719697  9.98660714285714 11.0563446969697  10.1383928571429 11.1732954545455  C 10.2901785714286 11.2902462121212  10.4888392857143 11.4319365530303  10.734375 11.5983664772727  C 10.9799107142857 11.7647964015152  11.2053571428571 11.8884943181818  11.4107142857143 11.9694602272727  C 11.6160714285714 12.0504261363636  11.8080357142857 12.0909090909091  11.9866071428571 12.0909090909091  L 12 12.0909090909091  L 12.0133928571429 12.0909090909091  C 12.1919642857143 12.0909090909091  12.3839285714286 12.0504261363636  12.5892857142857 11.9694602272727  C 12.7946428571429 11.8884943181818  13.0200892857143 11.7647964015152  13.265625 11.5983664772727  C 13.5111607142857 11.4319365530303  13.7098214285714 11.2902462121212  13.8616071428571 11.1732954545455  C 14.0133928571429 11.0563446969697  14.21875 10.887665719697  14.4776785714286 10.6672585227273  C 14.7366071428571 10.4468513257576  14.8928571428571 10.3141571969697  14.9464285714286 10.2691761363636  C 16.8035714285714 8.78480113636364  18.59375 7.35890151515151  20.3169642857143 5.99147727272727  C 20.7991071428571 5.60464015151515  21.2477678571429 5.08510890151515  21.6629464285714 4.43288352272727  Z M 23.3705357142857 0.634232954545454  C 23.7901785714286 1.05705492424242  24 1.56534090909091  24 2.15909090909091  L 24 16.8409090909091  C 24 17.4346590909091  23.7901785714286 17.9429450757576  23.3705357142857 18.3657670454545  C 22.9508928571429 18.7885890151515  22.4464285714286 19  21.8571428571429 19  L 2.14285714285714 19  C 1.55357142857143 19  1.04910714285714 18.7885890151515  0.629464285714286 18.3657670454545  C 0.209821428571429 17.9429450757576  0 17.4346590909091  0 16.8409090909091  L 0 2.15909090909091  C 0 1.56534090909091  0.209821428571429 1.05705492424242  0.629464285714286 0.634232954545454  C 1.04910714285714 0.211410984848482  1.55357142857143 0  2.14285714285714 0  L 21.8571428571429 0  C 22.4464285714286 0  22.9508928571429 0.211410984848482  23.3705357142857 0.634232954545454  Z " fill-rule="nonzero" fill="#000000" stroke="none" transform="matrix(1 0 0 1 18 200 )" />
  </g>
</svg>