﻿<?xml version="1.0" encoding="utf-8"?>
<svg version="1.1" xmlns:xlink="http://www.w3.org/1999/xlink" width="12px" height="12px" viewBox="61 328  12 12" xmlns="http://www.w3.org/2000/svg">
  <path d="M 67 328  C 70.36 328  73 330.64  73 334  C 73 337.36  70.36 340  67 340  C 63.64 340  61 337.36  61 334  C 61 330.64  63.64 328  67 328  Z " fill-rule="nonzero" fill="#ffffff" stroke="none" />
  <path d="M 67 328.5  C 70.08 328.5  72.5 330.92  72.5 334  C 72.5 337.08  70.08 339.5  67 339.5  C 63.92 339.5  61.5 337.08  61.5 334  C 61.5 330.92  63.92 328.5  67 328.5  Z " stroke-width="1" stroke="#797979" fill="none" />
  <path d="M 67 337  C 65.32 337  64 335.68  64 334  C 64 332.32  65.32 331  67 331  C 68.68 331  70 332.32  70 334  C 70 335.68  68.68 337  67 337  " fill-rule="nonzero" fill="#797979" stroke="none" />
</svg>