﻿<?xml version="1.0" encoding="utf-8"?>
<svg version="1.1" xmlns:xlink="http://www.w3.org/1999/xlink" width="32px" height="28px" xmlns="http://www.w3.org/2000/svg">
  <g transform="matrix(1 0 0 1 -15 -318 )">
    <path d="M 26.0029282576867 1.5  L 26.0029282576867 0.500000000000001  C 26.0029282576867 0.354166666666664  26.0497803806735 0.234375  26.1434846266471 0.140624999999999  C 26.2371888726208 0.0468749999999987  26.3569220758093 0  26.5026842362128 0  L 31.0004880429478 0  C 31.2711891979828 0  31.5054498129169 0.0989583333333357  31.7032698877501 0.296875000000001  C 31.9010899625834 0.494791666666663  32 0.729166666666666  32 1  L 32 5.5  C 32 5.64583333333333  31.9531478770132 5.765625  31.8594436310395 5.859375  C 31.7657393850659 5.953125  31.6460061818773 6  31.5002440214739 6  L 30.5007320644217 6  C 30.3549699040182 6  30.2352367008297 5.953125  30.141532454856 5.859375  C 30.0478282088824 5.765625  30.0009760858956 5.64583333333333  30.0009760858956 5.5  L 30.0009760858956 3.40625  L 26.0341630063446 7.390625  C 26.8254433056776 8.38020833333333  27.3850658857979 9.49479166666666  27.7130307467057 10.734375  C 28.0409956076135 11.9739583333333  28.0904506263218 13.2604166666667  27.8613958028306 14.59375  C 27.5282251504799 16.46875  26.6718724581097 18.0833333333333  25.2923377257199 19.4375  C 23.9128029933301 20.7916666666667  22.2807873759558 21.609375  20.3962908735969 21.890625  C 18.0745078900277 22.2447916666667  15.9453391898487 21.7760416666667  14.00878477306 20.484375  C 12.7906295754026 21.296875  11.4579469659997 21.78125  10.0107369448511 21.9375  L 10.0107369448511 24  L 11.5100048804295 24  C 11.6557670408329 24  11.7755002440215 24.046875  11.8692044899951 24.140625  C 11.9629087359688 24.234375  12.0097608589556 24.3541666666667  12.0097608589556 24.5  L 12.0097608589556 25.5  C 12.0097608589556 25.6458333333333  11.9629087359688 25.765625  11.8692044899951 25.859375  C 11.7755002440215 25.953125  11.6557670408329 26  11.5100048804295 26  L 10.0107369448511 26  L 10.0107369448511 27.5  C 10.0107369448511 27.6458333333333  9.96388482186432 27.765625  9.87018057589068 27.859375  C 9.77647632991703 27.953125  9.65674312672849 28  9.51098096632504 28  L 8.51146900927282 28  C 8.36570684886937 28  8.24597364568082 27.953125  8.15226939970717 27.859375  C 8.05856515373353 27.765625  8.01171303074671 27.6458333333333  8.01171303074671 27.5  L 8.01171303074671 26  L 6.51244509516837 26  C 6.36668293476493 26  6.24694973157638 25.953125  6.15324548560273 25.859375  C 6.05954123962909 25.765625  6.01268911664226 25.6458333333333  6.01268911664226 25.5  L 6.01268911664226 24.5  C 6.01268911664226 24.3541666666667  6.05954123962909 24.234375  6.15324548560273 24.140625  C 6.24694973157638 24.046875  6.36668293476493 24  6.51244509516837 24  L 8.01171303074671 24  L 8.01171303074671 21.9375  C 6.39791768342281 21.7604166666667  4.94289897510981 21.1901041666667  3.64665690580771 20.2265625  C 2.35041483650561 19.2630208333333  1.37693183666829 18.0260416666667  0.726207906295754 16.515625  C 0.0754839759232146 15.0052083333333  -0.130144786074508 13.40625  0.109321620302587 11.71875  C 0.369611192451602 9.77083333333333  1.19993492760696 8.09114583333333  2.60029282576867 6.6796875  C 4.00065072393037 5.26822916666667  5.66910688140556 4.41145833333333  7.60566129819424 4.109375  C 9.93785586464942 3.75520833333333  12.0722303562714 4.22395833333333  14.00878477306 5.515625  C 15.5288758744103 4.50520833333333  17.194729136164 4  19.0063445583211 4  C 21.0990727183992 4  22.9679518464292 4.65625  24.6129819424109 5.96875  L 28.5954123962909 2  L 26.5026842362128 2  C 26.3569220758093 2  26.2371888726208 1.953125  26.1434846266471 1.859375  C 26.0497803806735 1.765625  26.0029282576867 1.64583333333333  26.0029282576867 1.5  Z M 12.0097608589556 13  C 12.0097608589556 14.8958333333333  12.6761021636571 16.5260416666667  14.00878477306 17.890625  C 15.341467382463 16.5260416666667  16.0078086871645 14.8958333333333  16.0078086871645 13  C 16.0078086871645 11.1041666666667  15.341467382463 9.47395833333333  14.00878477306 8.109375  C 12.6761021636571 9.47395833333333  12.0097608589556 11.1041666666667  12.0097608589556 13  Z M 4.06832601268912 8.0546875  C 2.69920286318529 9.42447916666667  2.01464128843338 11.0729166666667  2.01464128843338 13  C 2.01464128843338 14.9270833333333  2.69920286318529 16.5755208333333  4.06832601268912 17.9453125  C 5.43744916219294 19.3151041666667  7.08508215389621 20  9.01122498779893 20  C 10.2293801854563 20  11.364242720026 19.703125  12.4158125915081 19.109375  C 10.8124288270701 17.3697916666667  10.0107369448511 15.3333333333333  10.0107369448511 13  C 10.0107369448511 10.6666666666667  10.8124288270701 8.63020833333333  12.4158125915081 6.890625  C 11.364242720026 6.296875  10.2293801854563 6  9.01122498779893 6  C 7.08508215389621 6  5.43744916219294 6.68489583333333  4.06832601268912 8.0546875  Z M 15.601756954612 19.109375  C 16.653326826094 19.703125  17.7881893606637 20  19.0063445583211 20  C 20.9324873922239 20  22.5801203839271 19.3151041666667  23.9492435334309 17.9453125  C 25.3183666829348 16.5755208333333  26.0029282576867 14.9270833333333  26.0029282576867 13  C 26.0029282576867 11.0729166666667  25.3183666829348 9.42447916666667  23.9492435334309 8.0546875  C 22.5801203839271 6.68489583333333  20.9324873922239 6  19.0063445583211 6  C 17.7881893606637 6  16.653326826094 6.296875  15.601756954612 6.890625  C 17.2051407190499 8.63020833333333  18.0068326012689 10.6666666666667  18.0068326012689 13  C 18.0068326012689 15.3333333333333  17.2051407190499 17.3697916666667  15.601756954612 19.109375  Z " fill-rule="nonzero" fill="#000000" stroke="none" transform="matrix(1 0 0 1 15 318 )" />
  </g>
</svg>