﻿<?xml version="1.0" encoding="utf-8"?>
<svg version="1.1" xmlns:xlink="http://www.w3.org/1999/xlink" width="30px" height="21px" xmlns="http://www.w3.org/2000/svg">
  <g transform="matrix(1 0 0 1 -16 -205 )">
    <path d="M 15.625 12.154296875  L 23.0989583333333 9.6796875  L 23.3333333333333 14  C 23.3680555555556 14.62890625  23.0121527777778 15.2122395833333  22.265625 15.75  C 21.5190972222222 16.2877604166667  20.4991319444444 16.7138671875  19.2057291666667 17.0283203125  C 17.9123263888889 17.3427734375  16.5104166666667 17.5  15 17.5  C 13.4895833333333 17.5  12.0876736111111 17.3427734375  10.7942708333333 17.0283203125  C 9.50086805555556 16.7138671875  8.48090277777778 16.2877604166667  7.734375 15.75  C 6.98784722222222 15.2122395833333  6.63194444444444 14.62890625  6.66666666666667 14  L 6.90104166666667 9.6796875  L 14.375 12.154296875  C 14.5659722222222 12.2180989583333  14.7743055555556 12.25  15 12.25  C 15.2256944444444 12.25  15.4340277777778 12.2180989583333  15.625 12.154296875  Z M 29.7135416666667 4.826171875  C 29.9045138888889 4.89908854166667  30 5.04036458333333  30 5.25  C 30 5.45963541666667  29.9045138888889 5.60091145833333  29.7135416666667 5.673828125  L 15.1302083333333 10.486328125  C 15.0954861111111 10.4954427083333  15.0520833333333 10.5  15 10.5  C 14.9479166666667 10.5  14.9045138888889 10.4954427083333  14.8697916666667 10.486328125  L 6.38020833333333 7.669921875  C 6.00694444444445 7.97981770833333  5.69878472222222 8.48795572916666  5.45572916666667 9.1943359375  C 5.21267361111111 9.90071614583333  5.06510416666667 10.7141927083333  5.01302083333333 11.634765625  C 5.55989583333333 11.962890625  5.83333333333333 12.4596354166667  5.83333333333333 13.125  C 5.83333333333333 13.75390625  5.58159722222222 14.2415364583333  5.078125 14.587890625  L 5.83333333333333 20.5078125  C 5.85069444444444 20.6354166666667  5.81597222222222 20.7493489583333  5.72916666666667 20.849609375  C 5.65104166666667 20.9498697916667  5.546875 21  5.41666666666667 21  L 2.91666666666667 21  C 2.78645833333333 21  2.68229166666667 20.9498697916667  2.60416666666667 20.849609375  C 2.51736111111111 20.7493489583333  2.48263888888889 20.6354166666667  2.5 20.5078125  L 3.25520833333333 14.587890625  C 2.75173611111111 14.2415364583333  2.5 13.75390625  2.5 13.125  C 2.5 12.4596354166667  2.78211805555556 11.9537760416667  3.34635416666667 11.607421875  C 3.44184027777778 9.720703125  3.8671875 8.216796875  4.62239583333333 7.095703125  L 0.286458333333333 5.673828125  C 0.0954861111111111 5.60091145833333  0 5.45963541666667  0 5.25  C 0 5.04036458333333  0.0954861111111111 4.89908854166667  0.286458333333333 4.826171875  L 14.8697916666667 0.0136718749999992  C 14.9045138888889 0.00455729166666563  14.9479166666667 0  15 0  C 15.0520833333333 0  15.0954861111111 0.00455729166666563  15.1302083333333 0.0136718749999992  L 29.7135416666667 4.826171875  Z " fill-rule="nonzero" fill="#000000" stroke="none" transform="matrix(1 0 0 1 16 205 )" />
  </g>
</svg>