﻿<?xml version="1.0" encoding="utf-8"?>
<svg version="1.1" xmlns:xlink="http://www.w3.org/1999/xlink" width="12px" height="12px" viewBox="176 328  12 12" xmlns="http://www.w3.org/2000/svg">
  <path d="M 182 328  C 185.36 328  188 330.64  188 334  C 188 337.36  185.36 340  182 340  C 178.64 340  176 337.36  176 334  C 176 330.64  178.64 328  182 328  Z " fill-rule="nonzero" fill="#ffffff" stroke="none" />
  <path d="M 182 328.5  C 185.08 328.5  187.5 330.92  187.5 334  C 187.5 337.08  185.08 339.5  182 339.5  C 178.92 339.5  176.5 337.08  176.5 334  C 176.5 330.92  178.92 328.5  182 328.5  Z " stroke-width="1" stroke="#797979" fill="none" />
  <path d="M 182 337  C 180.32 337  179 335.68  179 334  C 179 332.32  180.32 331  182 331  C 183.68 331  185 332.32  185 334  C 185 335.68  183.68 337  182 337  " fill-rule="nonzero" fill="#797979" stroke="none" />
</svg>