﻿<?xml version="1.0" encoding="utf-8"?>
<svg version="1.1" xmlns:xlink="http://www.w3.org/1999/xlink" width="12px" height="12px" viewBox="121 328  12 12" xmlns="http://www.w3.org/2000/svg">
  <path d="M 127 328  C 130.36 328  133 330.64  133 334  C 133 337.36  130.36 340  127 340  C 123.64 340  121 337.36  121 334  C 121 330.64  123.64 328  127 328  Z " fill-rule="nonzero" fill="#f0f0f0" stroke="none" />
  <path d="M 127 328.5  C 130.08 328.5  132.5 330.92  132.5 334  C 132.5 337.08  130.08 339.5  127 339.5  C 123.92 339.5  121.5 337.08  121.5 334  C 121.5 330.92  123.92 328.5  127 328.5  Z " stroke-width="1" stroke="#797979" fill="none" />
</svg>