﻿<?xml version="1.0" encoding="utf-8"?>
<svg version="1.1" xmlns:xlink="http://www.w3.org/1999/xlink" width="29px" height="25px" xmlns="http://www.w3.org/2000/svg">
  <g transform="matrix(1 0 0 1 -336 -557 )">
    <path d="M 11.4263020833333 11.3656850961538  C 12.2771701388889 10.5193309294872  13.3017361111111 10.0961538461538  14.5 10.0961538461538  C 15.6982638888889 10.0961538461538  16.7228298611111 10.5193309294872  17.5736979166667 11.3656850961538  C 18.4245659722222 12.2120392628205  18.85 13.2311698717949  18.85 14.4230769230769  C 18.85 15.614983974359  18.4245659722222 16.6341145833333  17.5736979166667 17.48046875  C 16.7228298611111 18.3268229166667  15.6982638888889 18.75  14.5 18.75  C 13.3017361111111 18.75  12.2771701388889 18.3268229166667  11.4263020833333 17.48046875  C 10.5754340277778 16.6341145833333  10.15 15.614983974359  10.15 14.4230769230769  C 10.15 13.2311698717949  10.5754340277778 12.2120392628205  11.4263020833333 11.3656850961538  Z M 21.75 3.84615384615385  L 25.1333333333333 3.84615384615385  C 26.2006944444444 3.84615384615385  27.1119791666667 4.22175480769231  27.8671875 4.97295673076923  C 28.6223958333333 5.72415865384615  29 6.63060897435897  29 7.69230769230769  L 29 21.1538461538462  C 29 22.2155448717949  28.6223958333333 23.1219951923077  27.8671875 23.8731971153846  C 27.1119791666667 24.6243990384615  26.2006944444444 25  25.1333333333333 25  L 3.86666666666667 25  C 2.79930555555556 25  1.88802083333333 24.6243990384615  1.1328125 23.8731971153846  C 0.377604166666667 23.1219951923077  0 22.2155448717949  0 21.1538461538462  L 0 7.69230769230769  C 0 6.63060897435897  0.377604166666667 5.72415865384615  1.1328125 4.97295673076923  C 1.88802083333333 4.22175480769231  2.79930555555556 3.84615384615385  3.86666666666667 3.84615384615385  L 7.25 3.84615384615385  L 8.0203125 1.80288461538461  C 8.21163194444444 1.31209935897436  8.56154513888889 0.888922275641024  9.07005208333333 0.533353365384615  C 9.57855902777778 0.177784455128208  10.0996527777778 0  10.6333333333333 0  L 18.3666666666667 0  C 18.9003472222222 0  19.4214409722222 0.177784455128208  19.9299479166667 0.533353365384615  C 20.4384548611111 0.888922275641024  20.7883680555556 1.31209935897436  20.9796875 1.80288461538461  L 21.75 3.84615384615385  Z M 9.71953125 19.1781850961538  C 11.0436631944444 20.4952924679487  12.6371527777778 21.1538461538462  14.5 21.1538461538462  C 16.3628472222222 21.1538461538462  17.9563368055556 20.4952924679487  19.28046875 19.1781850961538  C 20.6046006944444 17.861077724359  21.2666666666667 16.2760416666667  21.2666666666667 14.4230769230769  C 21.2666666666667 12.5701121794872  20.6046006944444 10.9850761217949  19.28046875 9.66796875  C 17.9563368055556 8.35086137820513  16.3628472222222 7.69230769230769  14.5 7.69230769230769  C 12.6371527777778 7.69230769230769  11.0436631944444 8.35086137820513  9.71953125 9.66796875  C 8.39539930555556 10.9850761217949  7.73333333333333 12.5701121794872  7.73333333333333 14.4230769230769  C 7.73333333333333 16.2760416666667  8.39539930555556 17.861077724359  9.71953125 19.1781850961538  Z " fill-rule="nonzero" fill="#000000" stroke="none" transform="matrix(1 0 0 1 336 557 )" />
  </g>
</svg>