﻿<?xml version="1.0" encoding="utf-8"?>
<svg version="1.1" xmlns:xlink="http://www.w3.org/1999/xlink" width="68px" height="10px" preserveAspectRatio="xMinYMid meet" viewBox="379 430  68 8" xmlns="http://www.w3.org/2000/svg">
  <path d="M 379 434  L 437 434  A 5 5 0 0 1 442 439 L 442 592  A 5 5 0 0 0 447 597 L 543 597  " stroke-width="2" stroke="#0099cc" fill="none" />
</svg>