﻿<?xml version="1.0" encoding="utf-8"?>
<svg version="1.1" xmlns:xlink="http://www.w3.org/1999/xlink" width="10px" height="298px" preserveAspectRatio="xMidYMin meet" viewBox="438 398  8 298" xmlns="http://www.w3.org/2000/svg">
  <path d="M 404 403  L 437 403  A 5 5 0 0 1 442 408 L 442 686  A 5 5 0 0 0 447 691 L 543 691  " stroke-width="2" stroke="#0099cc" fill="none" />
</svg>