﻿<?xml version="1.0" encoding="utf-8"?>
<svg version="1.1" xmlns:xlink="http://www.w3.org/1999/xlink" width="68px" height="10px" preserveAspectRatio="xMinYMid meet" viewBox="379 399  68 8" xmlns="http://www.w3.org/2000/svg">
  <path d="M 379 403  L 437 403  A 5 5 0 0 1 442 408 L 442 602  A 5 5 0 0 0 447 607 L 543 607  " stroke-width="2" stroke="#0099cc" fill="none" />
</svg>