﻿<?xml version="1.0" encoding="utf-8"?>
<svg version="1.1" xmlns:xlink="http://www.w3.org/1999/xlink" width="23px" height="18px" xmlns="http://www.w3.org/2000/svg">
  <g transform="matrix(1 0 0 1 -319 -92 )">
    <path d="M 22.5845161290323 2.48484848484849  C 22.8615053763441 2.76767676767677  23 3.11111111111111  23 3.51515151515152  C 23 3.91919191919192  22.8615053763441 4.26262626262626  22.5845161290323 4.54545454545454  L 11.8412903225806 15.5151515151515  L 9.82322580645161 17.5757575757576  C 9.54623655913979 17.8585858585859  9.20989247311828 18  8.8141935483871 18  C 8.41849462365591 18  8.08215053763441 17.8585858585859  7.80516129032258 17.5757575757576  L 5.78709677419355 15.5151515151515  L 0.415483870967742 10.030303030303  C 0.138494623655914 9.74747474747475  0 9.4040404040404  0 9  C 0 8.5959595959596  0.138494623655914 8.25252525252525  0.415483870967742 7.96969696969697  L 2.43354838709677 5.90909090909091  C 2.7105376344086 5.62626262626263  3.04688172043011 5.48484848484848  3.44258064516129 5.48484848484848  C 3.83827956989247 5.48484848484848  4.17462365591398 5.62626262626263  4.45161290322581 5.90909090909091  L 8.8141935483871 10.3787878787879  L 18.5483870967742 0.424242424242424  C 18.825376344086 0.141414141414141  19.1617204301075 0  19.5574193548387 0  C 19.9531182795699 0  20.2894623655914 0.141414141414141  20.5664516129032 0.424242424242424  L 22.5845161290323 2.48484848484849  Z " fill-rule="nonzero" fill="#000000" stroke="none" transform="matrix(1 0 0 1 319 92 )" />
  </g>
</svg>