﻿<?xml version="1.0" encoding="utf-8"?>
<svg version="1.1" xmlns:xlink="http://www.w3.org/1999/xlink" width="12px" height="12px" viewBox="93 276  12 12" xmlns="http://www.w3.org/2000/svg">
  <path d="M 93.5 276.5  L 104.5 276.5  L 104.5 287.5  L 93.5 287.5  L 93.5 276.5  Z " fill-rule="nonzero" fill="#ffffff" stroke="none" />
  <path d="M 93.5 276.5  L 104.5 276.5  L 104.5 287.5  L 93.5 287.5  L 93.5 276.5  Z " stroke-width="1" stroke="#797979" fill="none" />
  <path d="M 95.5714285714286 282  L 98.1428571428571 284.571428571429  " stroke-width="2.57142857142857" stroke="#797979" fill="none" />
  <path d="M 98.1428571428571 284.571428571429  L 102.428571428571 278.571428571429  " stroke-width="2.57142857142857" stroke="#797979" fill="none" />
</svg>