﻿<?xml version="1.0" encoding="utf-8"?>
<svg version="1.1" xmlns:xlink="http://www.w3.org/1999/xlink" width="41px" height="35px" xmlns="http://www.w3.org/2000/svg">
  <g transform="matrix(1 0 0 1 -3 -189 )">
    <path d="M 30.75 16.2467447916667  C 31.3194444444444 16.5201822916667  31.6041666666667 16.9379340277778  31.6041666666667 17.5  C 31.6041666666667 18.0620659722222  31.3194444444444 18.4798177083333  30.75 18.7532552083333  L 16.2291666666667 26.044921875  C 15.9622395833333 26.181640625  15.6775173611111 26.25  15.375 26.25  C 15.0902777777778 26.25  14.8055555555556 26.1892361111111  14.5208333333333 26.0677083333333  C 13.9513888888889 25.7790798611111  13.6666666666667 25.3537326388889  14 24.7916666666667  L 14 10.2083333333333  C 13.6666666666667 9.64626736111111  13.9513888888889 9.22092013888889  14.5208333333333 8.93229166666667  C 15.1080729166667 8.65885416666667  15.6775173611111 8.66644965277778  16.2291666666667 8.955078125  L 30.75 16.2467447916667  Z M 33.072265625 23.720703125  C 34.3713107638889 21.8218315972222  35.0208333333333 19.7482638888889  35.0208333333333 17.5  C 35.0208333333333 15.2517361111111  34.3713107638889 13.1781684027778  33.072265625 11.279296875  C 31.7732204861111 9.38042534722222  30.0115017361111 7.87651909722222  27.787109375 6.767578125  C 25.5627170138889 5.65863715277778  23.1336805555556 5.10416666666667  20.5 5.10416666666667  C 17.8663194444444 5.10416666666667  15.4372829861111 5.65863715277778  13.212890625 6.767578125  C 10.9884982638889 7.87651909722222  9.22677951388889 9.38042534722222  7.927734375 11.279296875  C 6.62868923611111 13.1781684027778  5.97916666666667 15.2517361111111  5.97916666666667 17.5  C 5.97916666666667 19.7482638888889  6.62868923611111 21.8218315972222  7.927734375 23.720703125  C 9.22677951388889 25.6195746527778  10.9884982638889 27.1234809027778  13.212890625 28.232421875  C 15.4372829861111 29.3413628472222  17.8663194444444 29.8958333333333  20.5 29.8958333333333  C 23.1336805555556 29.8958333333333  25.5627170138889 29.3413628472222  27.787109375 28.232421875  C 30.0115017361111 27.1234809027778  31.7732204861111 25.6195746527778  33.072265625 23.720703125  Z M 38.2506510416667 8.7158203125  C 40.0835503472222 11.3970269097222  41 14.3250868055556  41 17.5  C 41 20.6749131944444  40.0835503472222 23.6029730902778  38.2506510416667 26.2841796875  C 36.4177517361111 28.9653862847222  33.9308810763889 31.0883246527778  30.7900390625 32.6529947916667  C 27.6491970486111 34.2176649305556  24.2191840277778 35  20.5 35  C 16.7808159722222 35  13.3508029513889 34.2176649305556  10.2099609375 32.6529947916667  C 7.06911892361111 31.0883246527778  4.58224826388889 28.9653862847222  2.74934895833333 26.2841796875  C 0.916449652777778 23.6029730902778  0 20.6749131944444  0 17.5  C 0 14.3250868055556  0.916449652777778 11.3970269097222  2.74934895833333 8.7158203125  C 4.58224826388889 6.03461371527778  7.06911892361111 3.91167534722222  10.2099609375 2.34700520833333  C 13.3508029513889 0.782335069444441  16.7808159722222 0  20.5 0  C 24.2191840277778 0  27.6491970486111 0.782335069444441  30.7900390625 2.34700520833333  C 33.9308810763889 3.91167534722222  36.4177517361111 6.03461371527778  38.2506510416667 8.7158203125  Z " fill-rule="nonzero" fill="#555555" stroke="none" transform="matrix(1 0 0 1 3 189 )" />
  </g>
</svg>