﻿<?xml version="1.0" encoding="utf-8"?>
<svg version="1.1" xmlns:xlink="http://www.w3.org/1999/xlink" width="25px" height="29px" xmlns="http://www.w3.org/2000/svg">
  <g transform="matrix(1 0 0 1 -338 -21 )">
    <path d="M 15.33203125 17.78515625  C 16.6491386217949 16.2573116987179  17.3076923076923 14.4186698717949  17.3076923076923 12.2692307692308  C 17.3076923076923 10.1197916666667  16.6491386217949 8.28114983974359  15.33203125 6.75330528846154  C 14.0149238782051 5.22546073717949  12.4298878205128 4.46153846153846  10.5769230769231 4.46153846153846  C 8.72395833333333 4.46153846153846  7.13892227564103 5.22546073717949  5.82181490384615 6.75330528846154  C 4.50470753205128 8.28114983974359  3.84615384615385 10.1197916666667  3.84615384615385 12.2692307692308  C 3.84615384615385 14.4186698717949  4.50470753205128 16.2573116987179  5.82181490384615 17.78515625  C 7.13892227564103 19.313000801282  8.72395833333333 20.0769230769231  10.5769230769231 20.0769230769231  C 12.4298878205128 20.0769230769231  14.0149238782051 19.313000801282  15.33203125 17.78515625  Z M 24.4441105769231 25.2007211538462  C 24.814703525641 25.630608974359  25 26.1534455128205  25 26.7692307692308  C 25 27.3733974358974  24.8096955128205 27.896233974359  24.4290865384615 28.3377403846154  C 24.0484775641026 28.7792467948718  23.5977564102564 29  23.0769230769231 29  C 22.5360576923077 29  22.0853365384615 28.7792467948718  21.7247596153846 28.3377403846154  L 16.5715144230769 22.3774038461538  C 14.7786458333333 23.818108974359  12.7804487179487 24.5384615384615  10.5769230769231 24.5384615384615  C 9.14463141025641 24.5384615384615  7.77493990384615 24.2160456730769  6.46784855769231 23.5712139423077  C 5.16075721153846 22.9263822115385  4.03395432692308 22.0549879807692  3.08743990384615 20.95703125  C 2.14092548076923 19.8590745192308  1.38972355769231 18.5519831730769  0.833834134615385 17.0357572115385  C 0.277944711538462 15.51953125  0 13.9306891025641  0 12.2692307692308  C 0 10.6077724358974  0.277944711538462 9.01893028846154  0.833834134615385 7.50270432692308  C 1.38972355769231 5.98647836538461  2.14092548076923 4.67938701923077  3.08743990384615 3.58143028846154  C 4.03395432692308 2.48347355769231  5.16075721153846 1.61207932692308  6.46784855769231 0.967247596153847  C 7.77493990384615 0.322415865384615  9.14463141025641 0  10.5769230769231 0  C 12.0092147435897 0  13.37890625 0.322415865384615  14.6859975961538 0.967247596153847  C 15.9930889423077 1.61207932692308  17.1198918269231 2.48347355769231  18.06640625 3.58143028846154  C 19.0129206730769 4.67938701923077  19.7641225961538 5.98647836538461  20.3200120192308 7.50270432692308  C 20.8759014423077 9.01893028846154  21.1538461538462 10.6077724358974  21.1538461538462 12.2692307692308  C 21.1538461538462 14.8253205128205  20.5328525641026 17.1432291666667  19.2908653846154 19.2229567307692  L 24.4441105769231 25.2007211538462  Z " fill-rule="nonzero" fill="#ffffff" stroke="none" transform="matrix(1 0 0 1 338 21 )" />
  </g>
</svg>