﻿<?xml version="1.0" encoding="utf-8"?>
<svg version="1.1" xmlns:xlink="http://www.w3.org/1999/xlink" width="68px" height="10px" preserveAspectRatio="xMinYMid meet" viewBox="379 398  68 8" xmlns="http://www.w3.org/2000/svg">
  <path d="M 379 402  L 437 402  A 5 5 0 0 1 442 407 L 442 526  A 5 5 0 0 0 447 531 L 542 531  " stroke-width="2" stroke="#0099cc" fill="none" />
</svg>