﻿<?xml version="1.0" encoding="utf-8"?>
<svg version="1.1" xmlns:xlink="http://www.w3.org/1999/xlink" width="43px" height="10px" preserveAspectRatio="xMinYMid meet" viewBox="404 397  43 8" xmlns="http://www.w3.org/2000/svg">
  <path d="M 404 401  L 437 401  A 5 5 0 0 1 442 406 L 442 609  A 5 5 0 0 0 447 614 L 542 614  " stroke-width="2" stroke="#0099cc" fill="none" />
</svg>