﻿<?xml version="1.0" encoding="utf-8"?>
<svg version="1.1" xmlns:xlink="http://www.w3.org/1999/xlink" width="25px" height="25px" xmlns="http://www.w3.org/2000/svg">
  <g transform="matrix(1 0 0 1 -252 -1003 )">
    <path d="M 12.5 23.8839285714286  C 12.6602564102564 23.8839285714286  12.7403846153846 23.8095238095238  12.7403846153846 23.6607142857143  C 12.7403846153846 23.5119047619048  12.6602564102564 23.4375  12.5 23.4375  C 11.9090544871795 23.4375  11.4007411858974 23.2398623511905  10.9750600961538 22.8445870535714  C 10.5493790064103 22.4493117559524  10.3365384615385 21.977306547619  10.3365384615385 21.4285714285714  C 10.3365384615385 21.2797619047619  10.2564102564103 21.2053571428571  10.0961538461538 21.2053571428571  C 9.93589743589744 21.2053571428571  9.85576923076923 21.2797619047619  9.85576923076923 21.4285714285714  C 9.85576923076923 22.1075148809524  10.1136818910256 22.6864769345238  10.6295072115385 23.1654575892857  C 11.1453325320513 23.6444382440476  11.7688301282051 23.8839285714286  12.5 23.8839285714286  Z M 6.73076923076923 8.03571428571428  C 6.73076923076923 12.983630952381  5.39863782051282 16.8526785714286  2.734375 19.6428571428571  L 22.265625 19.6428571428571  C 19.6013621794872 16.8526785714286  18.2692307692308 12.983630952381  18.2692307692308 8.03571428571428  C 18.2692307692308 7.56138392857143  18.1490384615385 7.07310267857143  17.9086538461538 6.57087053571428  C 17.6682692307692 6.06863839285714  17.3227163461538 5.58965773809524  16.8719951923077 5.13392857142857  C 16.4212740384615 4.6781994047619  15.8128004807692 4.30385044642857  15.0465745192308 4.01088169642857  C 14.2803485576923 3.71791294642857  13.4314903846154 3.57142857142857  12.5 3.57142857142857  C 11.5685096153846 3.57142857142857  10.7196514423077 3.71791294642857  9.95342548076923 4.01088169642857  C 9.18719951923077 4.30385044642857  8.57872596153846 4.6781994047619  8.12800480769231 5.13392857142857  C 7.67728365384615 5.58965773809524  7.33173076923077 6.06863839285714  7.09134615384615 6.57087053571428  C 6.85096153846154 7.07310267857143  6.73076923076923 7.56138392857143  6.73076923076923 8.03571428571428  Z M 23.6328125 18.4151785714286  C 24.0434695512821 18.843005952381  24.4991987179487 19.2522321428571  25 19.6428571428571  C 25 20.1264880952381  24.8096955128205 20.5450148809524  24.4290865384615 20.8984375  C 24.0484775641026 21.2518601190476  23.5977564102564 21.4285714285714  23.0769230769231 21.4285714285714  L 16.3461538461538 21.4285714285714  C 16.3461538461538 22.4144345238095  15.9705528846154 23.2561383928571  15.2193509615385 23.9536830357143  C 14.4681490384615 24.6512276785714  13.5616987179487 25  12.5 25  C 11.4383012820513 25  10.5318509615385 24.6512276785714  9.78064903846154 23.9536830357143  C 9.02944711538462 23.2561383928571  8.65384615384615 22.4144345238095  8.65384615384615 21.4285714285714  L 1.92307692307692 21.4285714285714  C 1.40224358974359 21.4285714285714  0.951522435897436 21.2518601190476  0.570913461538461 20.8984375  C 0.190304487179487 20.5450148809524  0 20.1264880952381  0 19.6428571428571  C 0.500801282051282 19.2522321428571  0.956530448717949 18.843005952381  1.3671875 18.4151785714286  C 1.77784455128205 17.9873511904762  2.20352564102564 17.431640625  2.64423076923077 16.748046875  C 3.0849358974359 16.064453125  3.4580328525641 15.327380952381  3.76352163461538 14.5368303571429  C 4.06901041666667 13.7462797619048  4.31941105769231 12.788318452381  4.51472355769231 11.6629464285714  C 4.71003605769231 10.5375744047619  4.80769230769231 9.32849702380952  4.80769230769231 8.03571428571428  C 4.80769230769231 6.62202380952381  5.39362980769231 5.30831473214286  6.56550480769231 4.09458705357143  C 7.73737980769231 2.880859375  9.27483974358974 2.14378720238095  11.1778846153846 1.88337053571428  C 11.0977564102564 1.70665922619047  11.0576923076923 1.52529761904762  11.0576923076923 1.33928571428572  C 11.0576923076923 0.967261904761904  11.1979166666667 0.651041666666666  11.4783653846154 0.390625  C 11.7588141025641 0.130208333333334  12.099358974359 0  12.5 0  C 12.900641025641 0  13.2411858974359 0.130208333333334  13.5216346153846 0.390625  C 13.8020833333333 0.651041666666666  13.9423076923077 0.967261904761904  13.9423076923077 1.33928571428572  C 13.9423076923077 1.52529761904762  13.9022435897436 1.70665922619047  13.8221153846154 1.88337053571428  C 15.7251602564103 2.14378720238095  17.2626201923077 2.880859375  18.4344951923077 4.09458705357143  C 19.6063701923077 5.30831473214286  20.1923076923077 6.62202380952381  20.1923076923077 8.03571428571428  C 20.1923076923077 9.32849702380952  20.2899639423077 10.5375744047619  20.4852764423077 11.6629464285714  C 20.6805889423077 12.788318452381  20.9309895833333 13.7462797619048  21.2364783653846 14.5368303571429  C 21.5419671474359 15.327380952381  21.9150641025641 16.064453125  22.3557692307692 16.748046875  C 22.7964743589744 17.431640625  23.222155448718 17.9873511904762  23.6328125 18.4151785714286  Z " fill-rule="nonzero" fill="#797979" stroke="none" transform="matrix(1 0 0 1 252 1003 )" />
  </g>
</svg>