﻿<?xml version="1.0" encoding="utf-8"?>
<svg version="1.1" xmlns:xlink="http://www.w3.org/1999/xlink" width="322px" height="206px" xmlns="http://www.w3.org/2000/svg">
  <g transform="matrix(1 0 0 1 -27 -86 )">
    <path d="M 27 86  L 349 86  L 349 292  L 27 292  L 27 86  " fill-rule="nonzero" fill="#cccccc" stroke="none" />
    <path d="M 41 100  L 335 100  L 335 278  L 41 278  L 41 100  " fill-rule="nonzero" fill="#ffffff" stroke="none" />
    <path d="M 209.89 147.8  C 201.238 147.8  194.44 141.002  194.44 132.35  C 194.44 123.698  201.238 116.9  209.89 116.9  C 218.542 116.9  225.34 123.698  225.34 132.35  C 225.34 141.002  218.542 147.8  209.89 147.8  " fill-rule="nonzero" fill="#cccccc" stroke="none" />
    <path d="M 46 273  L 46 180.6  L 117 138.6  L 216.4 208.513043478261  L 273.2 163.8  L 330 208.513043478261  L 330 273  L 46 273  " fill-rule="nonzero" fill="#169bd5" stroke="none" />
  </g>
</svg>