﻿<?xml version="1.0" encoding="utf-8"?>
<svg version="1.1" xmlns:xlink="http://www.w3.org/1999/xlink" width="18px" height="19px" preserveAspectRatio="xMidYMin meet" viewBox="69 479  16 19" xmlns="http://www.w3.org/2000/svg">
  <path d="M 77.5 449  L 77.5 488  " stroke-width="1" stroke="#333333" fill="none" />
  <path d="M 71.2 487  L 77.5 493  L 83.8 487  L 71.2 487  Z " fill-rule="nonzero" fill="#333333" stroke="none" />
</svg>