﻿<?xml version="1.0" encoding="utf-8"?>
<svg version="1.1" xmlns:xlink="http://www.w3.org/1999/xlink" width="10px" height="39px" preserveAspectRatio="xMidYMin meet" viewBox="326 359  8 39" xmlns="http://www.w3.org/2000/svg">
  <path d="M 330.5 359  L 330.5 389  " stroke-width="1" stroke="#333333" fill="none" />
  <path d="M 324.2 388  L 330.5 394  L 336.8 388  L 324.2 388  Z " fill-rule="nonzero" fill="#333333" stroke="none" />
</svg>