﻿<?xml version="1.0" encoding="utf-8"?>
<svg version="1.1" xmlns:xlink="http://www.w3.org/1999/xlink" width="10px" height="462px" preserveAspectRatio="xMidYMin meet" viewBox="1799 376  8 462" xmlns="http://www.w3.org/2000/svg">
  <path d="M 1803.5 376  L 1803.5 833.5  L 1828.5 833.5  " stroke-width="1" stroke="#333333" fill="none" />
</svg>