﻿<?xml version="1.0" encoding="utf-8"?>
<svg version="1.1" xmlns:xlink="http://www.w3.org/1999/xlink" width="18px" height="19px" preserveAspectRatio="xMidYMin meet" viewBox="1795 144  16 19" xmlns="http://www.w3.org/2000/svg">
  <path d="M 249.5 118  L 249.5 140.5  L 1803.5 140.5  L 1803.5 153  " stroke-width="1" stroke="#333333" fill="none" />
  <path d="M 1797.2 152  L 1803.5 158  L 1809.8 152  L 1797.2 152  Z " fill-rule="nonzero" fill="#333333" stroke="none" />
</svg>