﻿<?xml version="1.0" encoding="utf-8"?>
<svg version="1.1" xmlns:xlink="http://www.w3.org/1999/xlink" width="201px" height="10px" preserveAspectRatio="xMinYMid meet" viewBox="1433 252  201 8" xmlns="http://www.w3.org/2000/svg">
  <path d="M 1433 256.5  L 1629.5 256.5  " stroke-width="1" stroke="#333333" fill="none" />
</svg>