﻿<?xml version="1.0" encoding="utf-8"?>
<svg version="1.1" xmlns:xlink="http://www.w3.org/1999/xlink" width="18px" height="19px" preserveAspectRatio="xMidYMin meet" viewBox="1433 315  16 19" xmlns="http://www.w3.org/2000/svg">
  <path d="M 1383.5 286  L 1383.5 307.5  L 1441.5 307.5  L 1441.5 324  " stroke-width="1" stroke="#333333" fill="none" />
  <path d="M 1435.2 323  L 1441.5 329  L 1447.8 323  L 1435.2 323  Z " fill-rule="nonzero" fill="#333333" stroke="none" />
</svg>