﻿<?xml version="1.0" encoding="utf-8"?>
<svg version="1.1" xmlns:xlink="http://www.w3.org/1999/xlink" width="10px" height="30px" preserveAspectRatio="xMidYMin meet" viewBox="1054 364  8 30" xmlns="http://www.w3.org/2000/svg">
  <path d="M 1058.5 364  L 1058.5 385  " stroke-width="1" stroke="#333333" fill="none" />
  <path d="M 1052.2 384  L 1058.5 390  L 1064.8 384  L 1052.2 384  Z " fill-rule="nonzero" fill="#333333" stroke="none" />
</svg>