﻿<?xml version="1.0" encoding="utf-8"?>
<svg version="1.1" xmlns:xlink="http://www.w3.org/1999/xlink" width="18px" height="19px" preserveAspectRatio="xMidYMin meet" viewBox="1320 376  16 19" xmlns="http://www.w3.org/2000/svg">
  <path d="M 1328.5 364  L 1328.5 385  " stroke-width="1" stroke="#333333" fill="none" />
  <path d="M 1322.2 384  L 1328.5 390  L 1334.8 384  L 1322.2 384  Z " fill-rule="nonzero" fill="#333333" stroke="none" />
</svg>