﻿<?xml version="1.0" encoding="utf-8"?>
<svg version="1.1" xmlns:xlink="http://www.w3.org/1999/xlink" width="300px" height="146px" xmlns="http://www.w3.org/2000/svg">
  <defs>
    <mask fill="white" id="clip50">
      <path d="M 168.260498046875 150  L 209.739501953125 150  L 209.739501953125 169  L 168.260498046875 169  Z M 38 85  L 338 85  L 338 231  L 38 231  Z " fill-rule="evenodd" />
    </mask>
  </defs>
  <g transform="matrix(1 0 0 1 -38 -85 )">
    <path d="M 38.5 85.5  L 337.5 85.5  L 337.5 230.5  L 38.5 230.5  L 38.5 85.5  Z " fill-rule="nonzero" fill="#f2f2f2" stroke="none" />
    <path d="M 38.5 85.5  L 337.5 85.5  L 337.5 230.5  L 38.5 230.5  L 38.5 85.5  Z " stroke-width="1" stroke="#797979" fill="none" />
    <path d="M 38.923806177246 85.4495856729264  L 337.076193822754 230.550414327074  M 337.076193822754 85.4495856729264  L 38.923806177246 230.550414327074  " stroke-width="1" stroke="#797979" fill="none" mask="url(#clip50)" />
  </g>
</svg>