﻿<?xml version="1.0" encoding="utf-8"?>
<svg version="1.1" xmlns:xlink="http://www.w3.org/1999/xlink" width="130px" height="222px" xmlns="http://www.w3.org/2000/svg">
  <g transform="matrix(1 0 0 1 -147 -252 )">
    <path d="M 147 252  L 277 252  L 277 474  L 147 474  L 147 252  " fill-rule="nonzero" fill="#cccccc" stroke="none" />
    <path d="M 156 261  L 268 261  L 268 465  L 156 465  L 156 261  " fill-rule="nonzero" fill="#ffffff" stroke="none" />
    <path d="M 224.35 304.8  C 218.89 304.8  214.6 300.51  214.6 295.05  C 214.6 289.59  218.89 285.3  224.35 285.3  C 229.81 285.3  234.1 289.59  234.1 295.05  C 234.1 300.51  229.81 304.8  224.35 304.8  " fill-rule="nonzero" fill="#cccccc" stroke="none" />
    <path d="M 160 462  L 160 353.65  L 186.25 304.4  L 223 343.8  L 244 333.95  L 265 343.8  L 265 462  L 160 462  " fill-rule="nonzero" fill="#169bd5" stroke="none" />
    <path d="M 147.5 473.5  L 147.5 252.5  L 276.5 252.5  L 276.5 473.5  L 147.5 473.5  Z " stroke-width="1" stroke="#797979" fill="none" />
  </g>
</svg>