﻿<?xml version="1.0" encoding="utf-8"?>
<svg version="1.1" xmlns:xlink="http://www.w3.org/1999/xlink" width="73px" height="10px" preserveAspectRatio="xMinYMid meet" viewBox="379 384  73 8" xmlns="http://www.w3.org/2000/svg">
  <path d="M 379 388  L 447 388  " stroke-width="2" stroke="#0099cc" fill="none" />
</svg>