﻿<?xml version="1.0" encoding="utf-8"?>
<svg version="1.1" xmlns:xlink="http://www.w3.org/1999/xlink" width="130px" height="222px" xmlns="http://www.w3.org/2000/svg">
  <g transform="matrix(1 0 0 1 -147 -298 )">
    <path d="M 147 298  L 277 298  L 277 520  L 147 520  L 147 298  " fill-rule="nonzero" fill="#cccccc" stroke="none" />
    <path d="M 156 307  L 268 307  L 268 511  L 156 511  L 156 307  " fill-rule="nonzero" fill="#ffffff" stroke="none" />
    <path d="M 224.35 350.8  C 218.89 350.8  214.6 346.51  214.6 341.05  C 214.6 335.59  218.89 331.3  224.35 331.3  C 229.81 331.3  234.1 335.59  234.1 341.05  C 234.1 346.51  229.81 350.8  224.35 350.8  " fill-rule="nonzero" fill="#cccccc" stroke="none" />
    <path d="M 160 508  L 160 399.65  L 186.25 350.4  L 223 389.8  L 244 379.95  L 265 389.8  L 265 508  L 160 508  " fill-rule="nonzero" fill="#169bd5" stroke="none" />
    <path d="M 147.5 519.5  L 147.5 298.5  L 276.5 298.5  L 276.5 519.5  L 147.5 519.5  Z " stroke-width="1" stroke="#797979" fill="none" />
  </g>
</svg>