﻿<?xml version="1.0" encoding="utf-8"?>
<svg version="1.1" xmlns:xlink="http://www.w3.org/1999/xlink" width="300px" height="85px" xmlns="http://www.w3.org/2000/svg">
  <g transform="matrix(1 0 0 1 -38 -91 )">
    <path d="M 39 100  A 8 8 0 0 1 47 92 L 329 92  A 8 8 0 0 1 337 100 L 337 167  A 8 8 0 0 1 329 175 L 47 175  A 8 8 0 0 1 39 167 L 39 100  Z " fill-rule="nonzero" fill="#cfa972" stroke="none" />
  </g>
</svg>