﻿<?xml version="1.0" encoding="utf-8"?>
<svg version="1.1" xmlns:xlink="http://www.w3.org/1999/xlink" width="300px" height="104px" xmlns="http://www.w3.org/2000/svg">
  <g transform="matrix(1 0 0 1 -38 -189 )">
    <path d="M 39 198  A 8 8 0 0 1 47 190 L 329 190  A 8 8 0 0 1 337 198 L 337 284  A 8 8 0 0 1 329 292 L 47 292  A 8 8 0 0 1 39 284 L 39 198  Z " fill-rule="nonzero" fill="#ffffff" stroke="none" />
  </g>
</svg>