﻿<?xml version="1.0" encoding="utf-8"?>
<svg version="1.1" xmlns:xlink="http://www.w3.org/1999/xlink" width="21px" height="24px" xmlns="http://www.w3.org/2000/svg">
  <g transform="matrix(1 0 0 1 -22 -232 )">
    <path d="M 17.5 6.85714285714286  C 17.5 8.16964285714286  17.1399739583333 9.38392857142857  16.419921875 10.5  C 16.8483072916667 10.625  17.2561848958333 10.7946428571429  17.6435546875 11.0089285714286  C 18.0309244791667 11.2232142857143  18.4365234375 11.5491071428571  18.8603515625 11.9866071428571  C 19.2841796875 12.4241071428571  19.646484375 12.9397321428571  19.947265625 13.5334821428571  C 20.248046875 14.1272321428571  20.4986979166667 14.8950892857143  20.69921875 15.8370535714286  C 20.8997395833333 16.7790178571429  21 17.8348214285714  21 19.0044642857143  C 21 20.3794642857143  20.5442708333333 21.5558035714286  19.6328125 22.5334821428571  C 18.7213541666667 23.5111607142857  17.623046875 24  16.337890625 24  L 4.662109375 24  C 3.376953125 24  2.27864583333333 23.5111607142857  1.3671875 22.5334821428571  C 0.455729166666667 21.5558035714286  0 20.3794642857143  0 19.0044642857143  C 0 17.8348214285714  0.100260416666667 16.7790178571429  0.30078125 15.8370535714286  C 0.501302083333333 14.8950892857143  0.751953125 14.1272321428571  1.052734375 13.5334821428571  C 1.353515625 12.9397321428571  1.7158203125 12.4241071428571  2.1396484375 11.9866071428571  C 2.5634765625 11.5491071428571  2.96907552083333 11.2232142857143  3.3564453125 11.0089285714286  C 3.74381510416667 10.7946428571429  4.15169270833333 10.625  4.580078125 10.5  C 3.86002604166667 9.38392857142857  3.5 8.16964285714286  3.5 6.85714285714286  C 3.5 5.92857142857143  3.6845703125 5.04241071428571  4.0537109375 4.19866071428571  C 4.4228515625 3.35491071428571  4.921875 2.625  5.55078125 2.00892857142857  C 6.1796875 1.39285714285714  6.9248046875 0.904017857142857  7.7861328125 0.542410714285714  C 8.6474609375 0.18080357142857  9.55208333333333 0  10.5 0  C 11.4479166666667 0  12.3525390625 0.18080357142857  13.2138671875 0.542410714285714  C 14.0751953125 0.904017857142857  14.8203125 1.39285714285714  15.44921875 2.00892857142857  C 16.078125 2.625  16.5771484375 3.35491071428571  16.9462890625 4.19866071428571  C 17.3154296875 5.04241071428571  17.5 5.92857142857143  17.5 6.85714285714286  Z M 14.2119140625 3.22098214285714  C 13.1865234375 2.21651785714286  11.94921875 1.71428571428571  10.5 1.71428571428571  C 9.05078125 1.71428571428571  7.8134765625 2.21651785714286  6.7880859375 3.22098214285714  C 5.7626953125 4.22544642857143  5.25 5.4375  5.25 6.85714285714286  C 5.25 8.27678571428571  5.7626953125 9.48883928571429  6.7880859375 10.4933035714286  C 7.8134765625 11.4977678571429  9.05078125 12  10.5 12  C 11.94921875 12  13.1865234375 11.4977678571429  14.2119140625 10.4933035714286  C 15.2373046875 9.48883928571429  15.75 8.27678571428571  15.75 6.85714285714286  C 15.75 5.4375  15.2373046875 4.22544642857143  14.2119140625 3.22098214285714  Z M 4.662109375 22  L 16.337890625 22  C 17.1399739583333 22.2857142857143  17.8258463541667 21.9665178571429  18.3955078125 21.328125  C 18.9651692708333 20.6897321428571  19.25 19.9151785714286  19.25 19.0044642857143  C 19.25 16.8705357142857  18.8922526041667 15.1875  18.1767578125 13.9553571428571  C 17.4612630208333 12.7232142857143  16.43359375 12.0758928571429  15.09375 12.0133928571429  C 13.7721354166667 13.1473214285714  12.2408854166667 13.7142857142857  10.5 13.7142857142857  C 8.75911458333333 13.7142857142857  7.22786458333333 13.1473214285714  5.90625 12.0133928571429  C 4.56640625 12.0758928571429  3.53873697916667 12.7232142857143  2.8232421875 13.9553571428571  C 2.10774739583333 15.1875  1.75 16.8705357142857  1.75 19.0044642857143  C 1.75 19.9151785714286  2.03483072916667 20.6897321428571  2.6044921875 21.328125  C 3.17415364583333 21.9665178571429  3.86002604166667 22.2857142857143  4.662109375 22  Z " fill-rule="nonzero" fill="#000000" stroke="none" transform="matrix(1 0 0 1 22 232 )" />
  </g>
</svg>