﻿<?xml version="1.0" encoding="utf-8"?>
<svg version="1.1" xmlns:xlink="http://www.w3.org/1999/xlink" width="300px" height="39px" xmlns="http://www.w3.org/2000/svg">
  <defs>
    <mask fill="white" id="clip64">
      <path d="M 169.71728515625 147  L 208.28271484375 147  L 208.28271484375 166  L 169.71728515625 166  Z M 38 136  L 338 136  L 338 175  L 38 175  Z " fill-rule="evenodd" />
    </mask>
  </defs>
  <g transform="matrix(1 0 0 1 -38 -136 )">
    <path d="M 38.5 136.5  L 337.5 136.5  L 337.5 174.5  L 38.5 174.5  L 38.5 136.5  Z " fill-rule="nonzero" fill="#f2f2f2" stroke="none" />
    <path d="M 38.5 136.5  L 337.5 136.5  L 337.5 174.5  L 38.5 174.5  L 38.5 136.5  Z " stroke-width="1" stroke="#797979" fill="none" />
    <path d="M 41.8140600667048 136.495827808672  L 334.185939933295 174.504172191328  M 334.185939933295 136.495827808672  L 41.8140600667048 174.504172191328  " stroke-width="1" stroke="#797979" fill="none" mask="url(#clip64)" />
  </g>
</svg>